%TF.GenerationSoftware,KiCad,Pcbnew,6.0.0-d3dd2cf0fa~116~ubuntu20.04.1*%
%TF.CreationDate,2022-01-01T18:50:43+01:00*%
%TF.ProjectId,logistics-board-v1,6c6f6769-7374-4696-9373-2d626f617264,rev?*%
%TF.SameCoordinates,Original*%
%TF.FileFunction,Soldermask,Bot*%
%TF.FilePolarity,Negative*%
%FSLAX46Y46*%
G04 Gerber Fmt 4.6, Leading zero omitted, Abs format (unit mm)*
G04 Created by KiCad (PCBNEW 6.0.0-d3dd2cf0fa~116~ubuntu20.04.1) date 2022-01-01 18:50:43*
%MOMM*%
%LPD*%
G01*
G04 APERTURE LIST*
%ADD10O,2.000000X1.600000*%
%ADD11R,2.000000X2.000000*%
%ADD12O,1.700000X1.700000*%
%ADD13R,1.700000X1.700000*%
%ADD14C,3.200000*%
%ADD15R,1.600000X1.600000*%
%ADD16C,1.600000*%
G04 APERTURE END LIST*
D10*
%TO.C,ESP8266*%
X147320000Y-123190000D03*
X147320000Y-120650000D03*
X147320000Y-118110000D03*
X147320000Y-115570000D03*
X147320000Y-113030000D03*
X147320000Y-110490000D03*
X147320000Y-107950000D03*
X147320000Y-105410000D03*
X170180000Y-105410000D03*
X170180000Y-107950000D03*
X170180000Y-110490000D03*
X170180000Y-113030000D03*
X170180000Y-115570000D03*
X170180000Y-118110000D03*
D11*
X170180000Y-123190000D03*
D10*
X170180000Y-120650000D03*
%TD*%
D12*
%TO.C,LED*%
X175445000Y-102870000D03*
X177985000Y-102870000D03*
D13*
X180525000Y-102870000D03*
%TD*%
%TO.C,BR*%
X187000000Y-102870000D03*
D12*
X187000000Y-105410000D03*
X187000000Y-107950000D03*
X187000000Y-110490000D03*
%TD*%
%TO.C,FR*%
X187000000Y-123190000D03*
X187000000Y-120650000D03*
X187000000Y-118110000D03*
D13*
X187000000Y-115570000D03*
%TD*%
%TO.C,FL*%
X140000000Y-110480000D03*
D12*
X140000000Y-107940000D03*
X140000000Y-105400000D03*
X140000000Y-102860000D03*
%TD*%
%TO.C,J1*%
X140000000Y-115180000D03*
X140000000Y-117720000D03*
X140000000Y-120260000D03*
D13*
X140000000Y-122800000D03*
%TD*%
D14*
%TO.C,H1*%
X176530000Y-120650000D03*
%TD*%
D15*
%TO.C,100uF1*%
X176000000Y-109220000D03*
D16*
X178500000Y-109220000D03*
%TD*%
M02*
