%TF.GenerationSoftware,KiCad,Pcbnew,5.1.9-73d0e3b20d~88~ubuntu20.04.1*%
%TF.CreationDate,2021-05-02T14:09:47+02:00*%
%TF.ProjectId,logistics-board-v1,6c6f6769-7374-4696-9373-2d626f617264,rev?*%
%TF.SameCoordinates,Original*%
%TF.FileFunction,Profile,NP*%
%FSLAX46Y46*%
G04 Gerber Fmt 4.6, Leading zero omitted, Abs format (unit mm)*
G04 Created by KiCad (PCBNEW 5.1.9-73d0e3b20d~88~ubuntu20.04.1) date 2021-05-02 14:09:47*
%MOMM*%
%LPD*%
G01*
G04 APERTURE LIST*
%TA.AperFunction,Profile*%
%ADD10C,0.050000*%
%TD*%
G04 APERTURE END LIST*
D10*
X125000000Y-100000000D02*
X200000000Y-100000000D01*
X125000000Y-146000000D02*
X125000000Y-100000000D01*
X200000000Y-146000000D02*
X125000000Y-146000000D01*
X200000000Y-100000000D02*
X200000000Y-146000000D01*
M02*
