%TF.GenerationSoftware,KiCad,Pcbnew,5.1.9-73d0e3b20d~88~ubuntu20.04.1*%
%TF.CreationDate,2021-05-02T14:09:47+02:00*%
%TF.ProjectId,logistics-board-v1,6c6f6769-7374-4696-9373-2d626f617264,rev?*%
%TF.SameCoordinates,Original*%
%TF.FileFunction,Legend,Top*%
%TF.FilePolarity,Positive*%
%FSLAX46Y46*%
G04 Gerber Fmt 4.6, Leading zero omitted, Abs format (unit mm)*
G04 Created by KiCad (PCBNEW 5.1.9-73d0e3b20d~88~ubuntu20.04.1) date 2021-05-02 14:09:47*
%MOMM*%
%LPD*%
G01*
G04 APERTURE LIST*
%ADD10C,0.300000*%
%ADD11C,0.150000*%
%ADD12C,0.120000*%
G04 APERTURE END LIST*
D10*
X179178571Y-123928571D02*
X180250000Y-123928571D01*
X180464285Y-124000000D01*
X180607142Y-124142857D01*
X180678571Y-124357142D01*
X180678571Y-124500000D01*
X180678571Y-122500000D02*
X180678571Y-123214285D01*
X179178571Y-123214285D01*
X180535714Y-121142857D02*
X180607142Y-121214285D01*
X180678571Y-121428571D01*
X180678571Y-121571428D01*
X180607142Y-121785714D01*
X180464285Y-121928571D01*
X180321428Y-122000000D01*
X180035714Y-122071428D01*
X179821428Y-122071428D01*
X179535714Y-122000000D01*
X179392857Y-121928571D01*
X179250000Y-121785714D01*
X179178571Y-121571428D01*
X179178571Y-121428571D01*
X179250000Y-121214285D01*
X179321428Y-121142857D01*
X179178571Y-120071428D02*
X180250000Y-120071428D01*
X180464285Y-120142857D01*
X180607142Y-120285714D01*
X180678571Y-120500000D01*
X180678571Y-120642857D01*
X180678571Y-118642857D02*
X180678571Y-119357142D01*
X179178571Y-119357142D01*
X180535714Y-117285714D02*
X180607142Y-117357142D01*
X180678571Y-117571428D01*
X180678571Y-117714285D01*
X180607142Y-117928571D01*
X180464285Y-118071428D01*
X180321428Y-118142857D01*
X180035714Y-118214285D01*
X179821428Y-118214285D01*
X179535714Y-118142857D01*
X179392857Y-118071428D01*
X179250000Y-117928571D01*
X179178571Y-117714285D01*
X179178571Y-117571428D01*
X179250000Y-117357142D01*
X179321428Y-117285714D01*
X179178571Y-116214285D02*
X180250000Y-116214285D01*
X180464285Y-116285714D01*
X180607142Y-116428571D01*
X180678571Y-116642857D01*
X180678571Y-116785714D01*
X180678571Y-114785714D02*
X180678571Y-115500000D01*
X179178571Y-115500000D01*
X180535714Y-113428571D02*
X180607142Y-113500000D01*
X180678571Y-113714285D01*
X180678571Y-113857142D01*
X180607142Y-114071428D01*
X180464285Y-114214285D01*
X180321428Y-114285714D01*
X180035714Y-114357142D01*
X179821428Y-114357142D01*
X179535714Y-114285714D01*
X179392857Y-114214285D01*
X179250000Y-114071428D01*
X179178571Y-113857142D01*
X179178571Y-113714285D01*
X179250000Y-113500000D01*
X179321428Y-113428571D01*
X179178571Y-112357142D02*
X180250000Y-112357142D01*
X180464285Y-112428571D01*
X180607142Y-112571428D01*
X180678571Y-112785714D01*
X180678571Y-112928571D01*
X180678571Y-110928571D02*
X180678571Y-111642857D01*
X179178571Y-111642857D01*
X180535714Y-109571428D02*
X180607142Y-109642857D01*
X180678571Y-109857142D01*
X180678571Y-110000000D01*
X180607142Y-110214285D01*
X180464285Y-110357142D01*
X180321428Y-110428571D01*
X180035714Y-110500000D01*
X179821428Y-110500000D01*
X179535714Y-110428571D01*
X179392857Y-110357142D01*
X179250000Y-110214285D01*
X179178571Y-110000000D01*
X179178571Y-109857142D01*
X179250000Y-109642857D01*
X179321428Y-109571428D01*
D11*
X172880952Y-124452380D02*
X172880952Y-123452380D01*
X173119047Y-123452380D01*
X173261904Y-123500000D01*
X173357142Y-123595238D01*
X173404761Y-123690476D01*
X173452380Y-123880952D01*
X173452380Y-124023809D01*
X173404761Y-124214285D01*
X173357142Y-124309523D01*
X173261904Y-124404761D01*
X173119047Y-124452380D01*
X172880952Y-124452380D01*
X173880952Y-124452380D02*
X173880952Y-123452380D01*
X173880952Y-123928571D02*
X174452380Y-123928571D01*
X174452380Y-124452380D02*
X174452380Y-123452380D01*
X174785714Y-123452380D02*
X175357142Y-123452380D01*
X175071428Y-124452380D02*
X175071428Y-123452380D01*
X175642857Y-123547619D02*
X175690476Y-123500000D01*
X175785714Y-123452380D01*
X176023809Y-123452380D01*
X176119047Y-123500000D01*
X176166666Y-123547619D01*
X176214285Y-123642857D01*
X176214285Y-123738095D01*
X176166666Y-123880952D01*
X175595238Y-124452380D01*
X176214285Y-124452380D01*
X176595238Y-123547619D02*
X176642857Y-123500000D01*
X176738095Y-123452380D01*
X176976190Y-123452380D01*
X177071428Y-123500000D01*
X177119047Y-123547619D01*
X177166666Y-123642857D01*
X177166666Y-123738095D01*
X177119047Y-123880952D01*
X176547619Y-124452380D01*
X177166666Y-124452380D01*
D12*
X182000000Y-109000000D02*
X169000000Y-109000000D01*
X182000000Y-125000000D02*
X182000000Y-109000000D01*
X169000000Y-125000000D02*
X182000000Y-125000000D01*
X169000000Y-109000000D02*
X169000000Y-125000000D01*
%TO.C,U2*%
X182100000Y-101340000D02*
X182100000Y-102950000D01*
X182100000Y-101340000D02*
X180100000Y-101340000D01*
X169560000Y-101620000D02*
X181810000Y-101620000D01*
X169560000Y-107380000D02*
X169560000Y-101620000D01*
X181820000Y-107380000D02*
X169560000Y-107380000D01*
X181820000Y-101630000D02*
X181820000Y-107370000D01*
%TO.C,U1*%
X163710000Y-107780000D02*
X163710000Y-100880000D01*
X166250000Y-107780000D02*
X163710000Y-107780000D01*
D11*
G36*
X167290000Y-127635000D02*
G01*
X167290000Y-126365000D01*
X166655000Y-127000000D01*
X167290000Y-127635000D01*
G37*
X167290000Y-127635000D02*
X167290000Y-126365000D01*
X166655000Y-127000000D01*
X167290000Y-127635000D01*
D12*
X142510000Y-135340000D02*
X164120000Y-135340000D01*
X140390000Y-100880000D02*
X140390000Y-133210000D01*
X166250000Y-107780000D02*
X166250000Y-133210000D01*
X163710000Y-100880000D02*
X140390000Y-100880000D01*
X142520000Y-135340000D02*
G75*
G02*
X140390000Y-133210000I0J2130000D01*
G01*
X166250000Y-133210000D02*
G75*
G02*
X164120000Y-135340000I-2130000J0D01*
G01*
%TO.C,J5*%
X188410000Y-141300000D02*
X187810000Y-141000000D01*
X188410000Y-140700000D02*
X188410000Y-141300000D01*
X187810000Y-141000000D02*
X188410000Y-140700000D01*
X172390000Y-144810000D02*
X187610000Y-144810000D01*
X172390000Y-136090000D02*
X172390000Y-144810000D01*
X187610000Y-136090000D02*
X172390000Y-136090000D01*
X187610000Y-144810000D02*
X187610000Y-136090000D01*
%TO.C,J4*%
X195300000Y-100590000D02*
X195000000Y-101190000D01*
X194700000Y-100590000D02*
X195300000Y-100590000D01*
X195000000Y-101190000D02*
X194700000Y-100590000D01*
X198810000Y-121610000D02*
X198810000Y-101390000D01*
X190090000Y-121610000D02*
X198810000Y-121610000D01*
X190090000Y-101390000D02*
X190090000Y-121610000D01*
X198810000Y-101390000D02*
X190090000Y-101390000D01*
%TO.C,J3*%
X195300000Y-123590000D02*
X195000000Y-124190000D01*
X194700000Y-123590000D02*
X195300000Y-123590000D01*
X195000000Y-124190000D02*
X194700000Y-123590000D01*
X198810000Y-144610000D02*
X198810000Y-124390000D01*
X190090000Y-144610000D02*
X198810000Y-144610000D01*
X190090000Y-124390000D02*
X190090000Y-144610000D01*
X198810000Y-124390000D02*
X190090000Y-124390000D01*
%TO.C,J2*%
X129700000Y-144910000D02*
X130000000Y-144310000D01*
X130300000Y-144910000D02*
X129700000Y-144910000D01*
X130000000Y-144310000D02*
X130300000Y-144910000D01*
X126190000Y-123890000D02*
X126190000Y-144110000D01*
X134910000Y-123890000D02*
X126190000Y-123890000D01*
X134910000Y-144110000D02*
X134910000Y-123890000D01*
X126190000Y-144110000D02*
X134910000Y-144110000D01*
%TO.C,J1*%
X129700000Y-122210000D02*
X130000000Y-121610000D01*
X130300000Y-122210000D02*
X129700000Y-122210000D01*
X130000000Y-121610000D02*
X130300000Y-122210000D01*
X126190000Y-101190000D02*
X126190000Y-121410000D01*
X134910000Y-101190000D02*
X126190000Y-101190000D01*
X134910000Y-121410000D02*
X134910000Y-101190000D01*
X126190000Y-121410000D02*
X134910000Y-121410000D01*
%TO.C,100uF1*%
X174452738Y-128110000D02*
X174452738Y-128660000D01*
X174177738Y-128385000D02*
X174727738Y-128385000D01*
X180120000Y-130000000D02*
G75*
G03*
X180120000Y-130000000I-2870000J0D01*
G01*
%TO.C,H2*%
D11*
X185238095Y-102252380D02*
X185238095Y-101252380D01*
X185238095Y-101728571D02*
X185809523Y-101728571D01*
X185809523Y-102252380D02*
X185809523Y-101252380D01*
X186238095Y-101347619D02*
X186285714Y-101300000D01*
X186380952Y-101252380D01*
X186619047Y-101252380D01*
X186714285Y-101300000D01*
X186761904Y-101347619D01*
X186809523Y-101442857D01*
X186809523Y-101538095D01*
X186761904Y-101680952D01*
X186190476Y-102252380D01*
X186809523Y-102252380D01*
%TO.C,H1*%
X140238095Y-138252380D02*
X140238095Y-137252380D01*
X140238095Y-137728571D02*
X140809523Y-137728571D01*
X140809523Y-138252380D02*
X140809523Y-137252380D01*
X141809523Y-138252380D02*
X141238095Y-138252380D01*
X141523809Y-138252380D02*
X141523809Y-137252380D01*
X141428571Y-137395238D01*
X141333333Y-137490476D01*
X141238095Y-137538095D01*
%TO.C,U2*%
X182452380Y-104261904D02*
X183261904Y-104261904D01*
X183357142Y-104214285D01*
X183404761Y-104166666D01*
X183452380Y-104071428D01*
X183452380Y-103880952D01*
X183404761Y-103785714D01*
X183357142Y-103738095D01*
X183261904Y-103690476D01*
X182452380Y-103690476D01*
X182547619Y-103261904D02*
X182500000Y-103214285D01*
X182452380Y-103119047D01*
X182452380Y-102880952D01*
X182500000Y-102785714D01*
X182547619Y-102738095D01*
X182642857Y-102690476D01*
X182738095Y-102690476D01*
X182880952Y-102738095D01*
X183452380Y-103309523D01*
X183452380Y-102690476D01*
%TO.C,U1*%
X141988095Y-99452380D02*
X141988095Y-100261904D01*
X142035714Y-100357142D01*
X142083333Y-100404761D01*
X142178571Y-100452380D01*
X142369047Y-100452380D01*
X142464285Y-100404761D01*
X142511904Y-100357142D01*
X142559523Y-100261904D01*
X142559523Y-99452380D01*
X143559523Y-100452380D02*
X142988095Y-100452380D01*
X143273809Y-100452380D02*
X143273809Y-99452380D01*
X143178571Y-99595238D01*
X143083333Y-99690476D01*
X142988095Y-99738095D01*
%TO.C,J5*%
X179916666Y-133952380D02*
X179916666Y-134666666D01*
X179869047Y-134809523D01*
X179773809Y-134904761D01*
X179630952Y-134952380D01*
X179535714Y-134952380D01*
X180869047Y-133952380D02*
X180392857Y-133952380D01*
X180345238Y-134428571D01*
X180392857Y-134380952D01*
X180488095Y-134333333D01*
X180726190Y-134333333D01*
X180821428Y-134380952D01*
X180869047Y-134428571D01*
X180916666Y-134523809D01*
X180916666Y-134761904D01*
X180869047Y-134857142D01*
X180821428Y-134904761D01*
X180726190Y-134952380D01*
X180488095Y-134952380D01*
X180392857Y-134904761D01*
X180345238Y-134857142D01*
%TO.C,J4*%
X188202380Y-111833333D02*
X188916666Y-111833333D01*
X189059523Y-111880952D01*
X189154761Y-111976190D01*
X189202380Y-112119047D01*
X189202380Y-112214285D01*
X188535714Y-110928571D02*
X189202380Y-110928571D01*
X188154761Y-111166666D02*
X188869047Y-111404761D01*
X188869047Y-110785714D01*
%TO.C,J3*%
X188452380Y-134833333D02*
X189166666Y-134833333D01*
X189309523Y-134880952D01*
X189404761Y-134976190D01*
X189452380Y-135119047D01*
X189452380Y-135214285D01*
X188452380Y-134452380D02*
X188452380Y-133833333D01*
X188833333Y-134166666D01*
X188833333Y-134023809D01*
X188880952Y-133928571D01*
X188928571Y-133880952D01*
X189023809Y-133833333D01*
X189261904Y-133833333D01*
X189357142Y-133880952D01*
X189404761Y-133928571D01*
X189452380Y-134023809D01*
X189452380Y-134309523D01*
X189404761Y-134404761D01*
X189357142Y-134452380D01*
%TO.C,J2*%
X135952380Y-134333333D02*
X136666666Y-134333333D01*
X136809523Y-134380952D01*
X136904761Y-134476190D01*
X136952380Y-134619047D01*
X136952380Y-134714285D01*
X136047619Y-133904761D02*
X136000000Y-133857142D01*
X135952380Y-133761904D01*
X135952380Y-133523809D01*
X136000000Y-133428571D01*
X136047619Y-133380952D01*
X136142857Y-133333333D01*
X136238095Y-133333333D01*
X136380952Y-133380952D01*
X136952380Y-133952380D01*
X136952380Y-133333333D01*
%TO.C,J1*%
X136202380Y-111633333D02*
X136916666Y-111633333D01*
X137059523Y-111680952D01*
X137154761Y-111776190D01*
X137202380Y-111919047D01*
X137202380Y-112014285D01*
X137202380Y-110633333D02*
X137202380Y-111204761D01*
X137202380Y-110919047D02*
X136202380Y-110919047D01*
X136345238Y-111014285D01*
X136440476Y-111109523D01*
X136488095Y-111204761D01*
%TO.C,100uF1*%
X175226190Y-126452380D02*
X174654761Y-126452380D01*
X174940476Y-126452380D02*
X174940476Y-125452380D01*
X174845238Y-125595238D01*
X174750000Y-125690476D01*
X174654761Y-125738095D01*
X175845238Y-125452380D02*
X175940476Y-125452380D01*
X176035714Y-125500000D01*
X176083333Y-125547619D01*
X176130952Y-125642857D01*
X176178571Y-125833333D01*
X176178571Y-126071428D01*
X176130952Y-126261904D01*
X176083333Y-126357142D01*
X176035714Y-126404761D01*
X175940476Y-126452380D01*
X175845238Y-126452380D01*
X175750000Y-126404761D01*
X175702380Y-126357142D01*
X175654761Y-126261904D01*
X175607142Y-126071428D01*
X175607142Y-125833333D01*
X175654761Y-125642857D01*
X175702380Y-125547619D01*
X175750000Y-125500000D01*
X175845238Y-125452380D01*
X176797619Y-125452380D02*
X176892857Y-125452380D01*
X176988095Y-125500000D01*
X177035714Y-125547619D01*
X177083333Y-125642857D01*
X177130952Y-125833333D01*
X177130952Y-126071428D01*
X177083333Y-126261904D01*
X177035714Y-126357142D01*
X176988095Y-126404761D01*
X176892857Y-126452380D01*
X176797619Y-126452380D01*
X176702380Y-126404761D01*
X176654761Y-126357142D01*
X176607142Y-126261904D01*
X176559523Y-126071428D01*
X176559523Y-125833333D01*
X176607142Y-125642857D01*
X176654761Y-125547619D01*
X176702380Y-125500000D01*
X176797619Y-125452380D01*
X177988095Y-125785714D02*
X177988095Y-126452380D01*
X177559523Y-125785714D02*
X177559523Y-126309523D01*
X177607142Y-126404761D01*
X177702380Y-126452380D01*
X177845238Y-126452380D01*
X177940476Y-126404761D01*
X177988095Y-126357142D01*
X178797619Y-125928571D02*
X178464285Y-125928571D01*
X178464285Y-126452380D02*
X178464285Y-125452380D01*
X178940476Y-125452380D01*
X179845238Y-126452380D02*
X179273809Y-126452380D01*
X179559523Y-126452380D02*
X179559523Y-125452380D01*
X179464285Y-125595238D01*
X179369047Y-125690476D01*
X179273809Y-125738095D01*
%TD*%
M02*
